,all users,just_because,thank_you,traveling,birthday,parenting,holidays
retained,1.0,1.0,1.0,1.0,1.0,1.0,1.0
quarters_ordered_first_year_1,-0.6396120249070262,-0.6737095114991035,-0.6182164027301889,-0.5906832706728483,-0.5986902055463613,-0.6724961075932558,-0.5105861447105634
quarters_ordered_first_year_2,0.2631402148301149,0.28917865110994856,0.23513730590374174,0.29733532455502787,0.23193421302150283,0.16925336544157268,0.16531952580404613
quarters_ordered_first_year_3,0.32250432201938545,0.3415783372017097,0.3041783278291274,0.29838447802245954,0.2979664668743489,0.34548711786527225,0.24653829595037255
quarters_ordered_first_year_4,0.29462107314859753,0.30915738337630994,0.27794385408474653,0.23178175971186005,0.28978885830583223,0.39763233768042694,0.2633658788193276
number_of_use_cases_1,-0.4876124579252976,-0.5190495629494983,-0.49434496014330753,-0.4777588033547661,-0.5605464758145233,-0.5489499464154727,-0.45568016955069446
number_of_use_cases_2,0.08229649520943987,0.1635872481161312,0.05125546184816685,0.11673674619704563,0.06600760946661864,-0.07427073214334998,0.007369217109551776
number_of_use_cases_3,0.25363008046586794,0.2781164783216708,0.25854037365610605,0.2572305550456581,0.27183472695316707,0.24155032500425835,0.21720528606456369
number_of_use_cases_4,0.24636699351254523,0.24214475118619505,0.24865178395339518,0.21721784087235185,0.2886354450352903,0.29789515554084967,0.2313915227769191
number_of_use_cases_5,0.17903501482302273,0.16060237436134123,0.18279418303467243,0.14234870385829262,0.2140037372508028,0.27827962424608976,0.19857179777634937
number_of_use_cases_6,0.09388988468021721,0.07774387630504517,0.09320652075338834,0.06561573382844513,0.11032896722047039,0.16319215801205889,0.11026996443587138
